Scatter plots with marginal densities and repelling labels
…
# built-in `mtcars` dataset (see ?mtcars)
# ... convert some columns to factors
mycars <- mtcars
mycars$model <- rownames(mycars)
mycars$cyl <- factor(mycars$cyl, levels = c("4","6","8"))
mycars$engine_shape <- factor(c("0" = "V-shaped", "1" = "straight")[as.character(mycars$vs)])
mycars$transmission <- factor(c("0" = "automatic", "1" = "manual")[as.character(mycars$am)])

tibble(mycars)

# A tibble: 32 x 14
     mpg cyl    disp    hp  drat    wt  qsec    vs    am  gear  carb model             engine_shape transmission
   <dbl> <fct> <dbl> <dbl> <dbl> <dbl> <dbl> <dbl> <dbl> <dbl> <dbl> <chr>             <fct>        <fct>       
 1  21   6      160    110  3.9   2.62  16.5     0     1     4     4 Mazda RX4         V-shaped     manual      
 2  21   6      160    110  3.9   2.88  17.0     0     1     4     4 Mazda RX4 Wag     V-shaped     manual      
 3  22.8 4      108     93  3.85  2.32  18.6     1     1     4     1 Datsun 710        straight     manual      
 4  21.4 6      258    110  3.08  3.22  19.4     1     0     3     1 Hornet 4 Drive    straight     automatic   
 5  18.7 8      360    175  3.15  3.44  17.0     0     0     3     2 Hornet Sportabout V-shaped     automatic   
 6  18.1 6      225    105  2.76  3.46  20.2     1     0     3     1 Valiant           straight     automatic   
 7  14.3 8      360    245  3.21  3.57  15.8     0     0     3     4 Duster 360        V-shaped     automatic   
 8  24.4 4      147.    62  3.69  3.19  20       1     0     4     2 Merc 240D         straight     automatic   
 9  22.8 4      141.    95  3.92  3.15  22.9     1     0     4     2 Merc 230          straight     automatic   
10  19.2 6      168.   123  3.92  3.44  18.3     1     0     4     4 Merc 280          straight     automatic   
# i 22 more rows
…
