Creating customized heatmaps and combining them in a single figure
…
tibble(ppis)

# A tibble: 735 × 5
   aminoacid heptad position   ppi final_position
   <chr>      <int> <chr>    <dbl> <fct>         
 1 *              1 a        0.601 1a            
 2 P              1 a        0.952 1a            
 3 G              1 a        0.686 1a            
 4 C              1 a        1.02  1a            
 5 M              1 a        1.06  1a            
 6 R              1 a        0.432 1a            
 7 K              1 a        0.770 1a            
 8 E              1 a        1.02  1a            
 9 D              1 a        0.786 1a            
10 N              1 a        0.720 1a            
# ℹ 725 more rows
…
