Intermediate ggplot2 - tips and tricks
…
A quick look at the data

We will use three different data sets to illustrate the tips and tricks in this document. The first one comes from the fueleconomy package, and provides fuel economy data from the EPA between the years 1985 and 2015. We subset the data to only the vehicles from the year 2000 or later.

(vehicles <- vehicles %>%
     dplyr::filter(year >= 2000))

# A tibble: 16,649 × 12
      id make  model  year class       trans drive   cyl displ fuel    hwy   cty
   <dbl> <chr> <chr> <dbl> <chr>       <chr> <chr> <dbl> <dbl> <chr> <dbl> <dbl>
 1 16573 Acura 3.2CL  2001 Compact Ca… Auto… Fron…     6   3.2 Prem…    27    17
 2 17489 Acura 3.2CL  2002 Compact Ca… Auto… Fron…     6   3.2 Prem…    27    17
 3 18458 Acura 3.2CL  2003 Compact Ca… Manu… Fron…     6   3.2 Prem…    26    17
 4 18459 Acura 3.2CL  2003 Compact Ca… Auto… Fron…     6   3.2 Prem…    27    17
 5 15871 Acura 3.2TL  2000 Midsize Ca… Auto… Fron…     6   3.2 Prem…    27    17
 6 16734 Acura 3.2TL  2001 Midsize Ca… Auto… Fron…     6   3.2 Prem…    27    17
 7 17664 Acura 3.2TL  2002 Midsize Ca… Auto… Fron…     6   3.2 Prem…    27    17
 8 18629 Acura 3.2TL  2003 Midsize Ca… Auto… Fron…     6   3.2 Prem…    27    17
 9 15872 Acura 3.5RL  2000 Midsize Ca… Auto… Fron…     6   3.5 Prem…    22    16
10 16735 Acura 3.5RL  2001 Midsize Ca… Auto… Fron…     6   3.5 Prem…    22    16
# ℹ 16,639 more rows

The second data set is provided with the ggplot2 package, and contains data on a set of diamonds.

diamonds

# A tibble: 53,940 × 10
   carat cut       color clarity depth table price     x     y     z
   <dbl> <ord>     <ord> <ord>   <dbl> <dbl> <int> <dbl> <dbl> <dbl>
 1  0.23 Ideal     E     SI2      61.5    55   326  3.95  3.98  2.43
 2  0.21 Premium   E     SI1      59.8    61   326  3.89  3.84  2.31
 3  0.23 Good      E     VS1      56.9    65   327  4.05  4.07  2.31
 4  0.29 Premium   I     VS2      62.4    58   334  4.2   4.23  2.63
 5  0.31 Good      J     SI2      63.3    58   335  4.34  4.35  2.75
 6  0.24 Very Good J     VVS2     62.8    57   336  3.94  3.96  2.48
 7  0.24 Very Good I     VVS1     62.3    57   336  3.95  3.98  2.47
 8  0.26 Very Good H     SI1      61.9    55   337  4.07  4.11  2.53
 9  0.22 Fair      E     VS2      65.1    61   337  3.87  3.78  2.49
10  0.23 Very Good H     VS1      59.4    61   338  4     4.05  2.39
# ℹ 53,930 more rows
…
